{
  "errorNumber": 1,
  "errorCode": "",
  "errorMessage": "",
  "cp": null,
  "provincia": "L’Hospitalet de Llobregat",
  "agencia": "PRO Service Barcelona Sud",
  "direccion": "C/ Montserrat Roig, 34-36",
  "cp-agencia": 8908,
  "contacto-nombre": "Ramon Saguer",
  "contacto-cargo": "Gerente PRO Service Barcelona Sud",
  "telefono": "938 804 745",
  "movil": null,
  "mail": "gerencia.barcelonasud@proservice.volkswagengroup.es",
  "foto-interior": "/public/mapas/proservice_interior.jpg",
  "mapa-agencia": "/public/mapas/BarcelonaSud/BarcelonaSud_agencia.jpg",
  "rutas": [
    {
      "nombre": "Ruta 01",
      "nivel-servicio": "4 entregas al día",
      "mapa":  "/public/mapas/BarcelonaSud/BarcelonaSud_ruta1.jpg"
    },
    {
      "nombre": "Ruta 02",
      "nivel-servicio": "4 entregas al día",
      "mapa":  "/public/mapas/BarcelonaSud/BarcelonaSud_ruta2.jpg"
    },
    {
      "nombre": "Ruta 03",
      "nivel-servicio": "4 entregas al día, Reus: 4 entregas al día",
      "mapa":  "/public/mapas/BarcelonaSud/BarcelonaSud_ruta3.jpg"
    },
    {
      "nombre": "Ruta 04",
      "nivel-servicio": "4 entregas al día",
      "mapa":  "/public/mapas/BarcelonaSud/BarcelonaSud_ruta4.jpg"
    }
  ]
}