{
  "errorNumber": 1,
  "errorCode": "",
  "errorMessage": "",
  "cp": null,
  "provincia": "Lleida",
  "agencia": "PRO Service Lleida",
  "direccion": "Polígono Industrial dels Frares Calle J, num.15, Nave 7",
  "cp-agencia": 25190,
  "contacto-nombre": "Sergi Oms",
  "contacto-cargo": "Gerente PRO Service Lleida",
  "telefono": "973 677 816",
  "movil": null,
  "mail": "gerencia.lleida@proservice.volkswagengroup.es",
  "foto-interior": "/public/mapas/proservice_interior.jpg",
  "mapa-agencia": "/public/mapas/Lleida/Lleida_agencia.jpg",
  "rutas": [
    {
      "nombre": "Ruta 01",
      "nivel-servicio": "4 entregas al día",
      "mapa":  "/public/mapas/Lleida/Lleida_Ruta_1.jpg"
    },
    {
      "nombre": "Ruta 02",
      "nivel-servicio": "2 entregas al día",
      "mapa":  "/public/mapas/Lleida/Lleida_Ruta_2.jpg"
    },
    {
      "nombre": "Ruta 03",
      "nivel-servicio": "2 entregas al día",
      "mapa":  "/public/mapas/Lleida/Lleida_Ruta_3.jpg"
    },
    {
      "nombre": "Ruta 04",
      "nivel-servicio": "2 entregas al día",
      "mapa":  "/public/mapas/Lleida/Lleida_Ruta_4.jpg"
    },
    {
      "nombre": "Ruta 05",
      "nivel-servicio": "2 entregas al día",
      "mapa":  "/public/mapas/Lleida/Lleida_Ruta_5.jpg"
    },
    {
      "nombre": "Ruta 06",
      "nivel-servicio": "2 entregas al día",
      "mapa":  "/public/mapas/Lleida/Lleida_Ruta_6.jpg"
    },
    {
      "nombre": "Ruta 07",
      "nivel-servicio": "2 entregas al día",
      "mapa":  "/public/mapas/Lleida/Lleida_Ruta_7.jpg"
    },
    {
      "nombre": "Ruta 08",
      "nivel-servicio": "2 entregas al día",
      "mapa":  "/public/mapas/Lleida/Lleida_Ruta_8.jpg"
    },
    {
      "nombre": "Ruta 09",
      "nivel-servicio": "1 entregas al día",
      "mapa":  "/public/mapas/Lleida/Lleida_Ruta_9.jpg"
    }
  ]
}